…
As for the tables with more columns, i.e. the tables with these indexes:
```R
idx_messy
```
```
2  8 11 37
```

The columns have to be inspected one by one.
```R
table_city[[2]]
```
```
# A tibble: 33 × 11
     No. `Kabupaten/kota`            `Ibu kota` `Bupati/wali kota` Luas wilayah (km2)[3…¹ Jumlah penduduk (202…² `IPM\n(2020)` Kecamatan `Kelurahan/desa` Lambang `Peta lokasi`
   <int> <chr>                       <chr>      <chr>              <chr>                  <chr>                          <dbl>     <int> <chr>            <lgl>   <lgl>        
 1     1 Kabupaten Asahan            Kisaran    Surya              3.737,83               791.174                         70.5        25 27/177           NA      NA           
 2     2 Kabupaten Batu Bara         Limapuluh  Zahir              888,14                 443.816                         68.6        12 10/141           NA      NA           
 3     3 Kabupaten Dairi             Sidikalang Eddy Keleng Ate B… 2.083,60               319.583                         71.8        15 8/161            NA      NA           
 4     4 Kabupaten Deli Serdang      Lubuk Pak… Ashari Tambunan    2.581,23               1.991.108                       75.5        22 14/380           NA      NA           
 5     5 Kabupaten Humbang Hasundut… Dolok San… Dosmar Banjarnahor 2.351,51               204.377                         69.4        10 1/153            NA      NA           
# ℹ 28 more rows
# ℹ abbreviated names: ¹​`Luas wilayah (km2)[3]`, ²​`Jumlah penduduk (2020)`
# ℹ Use `print(n = ...)` to see more rows
```

`IPM` is the only column that does not present in other tables. This table can be easily cleaned by dropping this `IPM` column. Meanwhile, the 8-th table have 20 columns:

```R
table_city[[8]]
```
```
# A tibble: 15 × 20
   No.   `Kabupaten/kota`  `Ibu kota[11]` `Bupati/wali kota` Luas wilayah (km2)[1…¹ Jumlah penduduk (202…² Kecamatan `Kelurahan/desa` Lambang `Peta lokasi`    `` ``    ``   ``           ``       ``         `` ``    ``    ``   
   <chr> <chr>             <chr>          <chr>              <chr>                  <chr>                  <chr>     <chr>            <chr>   <chr>         <int> <chr> <chr><chr>        <chr>    <chr>   <int> <chr> <lgl> <lgl>
 1 No.   Kabupaten/kota    Ibu kota[11]   Bupati/wali kota   Luas wilayah (km2)[12] Jumlah penduduk (2020… Kecamatan Kelurahan/desa   "Lamba… "Peta lokasi"     1 Kabu… Liwa Nukman (Pj.) 2.142,78 302.139    15 5/131 NA    NA   
 2 2     Kabupaten Lampun… Kalianda       Nanang Ermanto     2.219,01               1.064.301              17        4/256            ""      ""               NA NA    NA   NA           NA       NA         NA NA    NA    NA   
 3 3     Kabupaten Lampun… Gunung Sugih   Musa Ahmad         4.544,68               1.460.045              28        10/301           ""      ""               NA NA    NA   NA           NA       NA         NA NA    NA    NA   
 4 4     Kabupaten Lampun… Sukadana       M. Dawam Rahardjo  3.864,69               1.110.340              24        -/264            ""      ""               NA NA    NA   NA           NA       NA         NA NA    NA    NA   
 5 5     Kabupaten Lampun… Kotabumi       Budi Utomo         2.529,54               633 099                23        15/232           ""      ""               NA NA    NA   NA           NA       NA         NA NA    NA    NA   
 # ℹ 10 more rows
```
…
table_city_clean_colnames = tibble()
prov_names = head(table_prov$provinsi, nrow(table_prov)-1)
for (i in 1:length(table_city)){
  temp = 
    clean_name_table(table_city[[i]]) %>%
    mutate(provinsi = prov_names[i]) %>%
    relocate(provinsi)
  table_city_clean_colnames = bind_rows(table_city_clean_colnames, temp)
  rm(temp)
}
table_city_clean_colnames
```
```
# A tibble: 514 × 8
   provinsi kabupaten_kota            ibu_kota    bupati_wali_kota       luas_wilayah_diff_sources_and_years jumlah_penduduk_diff_sources_and_years kecamatan kelurahan_desa
   <chr>    <chr>                     <chr>       <chr>                                                <dbl>                                  <dbl>     <int> <chr>         
 1 Aceh     Kabupaten Aceh Barat      Meulaboh    Mahdi Effendi (Pj.)                                  2783.                                 198858        12 322           
 2 Aceh     Kabupaten Aceh Barat Daya Blangpidie  Darmansah (Pj.)                                      1882.                                 153515         9 152           
 3 Aceh     Kabupaten Aceh Besar      Kota Jantho Muhammad Iswanto (Pj.)                               2891.                                 422241        23 604           
 4 Aceh     Kabupaten Aceh Jaya       Calang      Nurdin (Pj.)                                         3872.                                  96049         9 172           
 5 Aceh     Kabupaten Aceh Selatan    Tapak Tuan  Tgk. Amran                                           4175.                                 234169        18 260           
 6 Aceh     Kabupaten Aceh Singkil    Singkil     Marthunis (Pj.)                                      1853.                                 129674        11 116           
 7 Aceh     Kabupaten Aceh Tamiang    Karang Baru Meurah Budiman (Pj.)                                 2188.                                 301800        12 216           
 8 Aceh     Kabupaten Aceh Tengah     Takengon    Teuku Mirzuan (Pj.)                                  4468.                                 219744        14 295           
 9 Aceh     Kabupaten Aceh Tenggara   Kutacane    Syakir (Pj.)                                         4179.                                 227921        16 385           
10 Aceh     Kabupaten Aceh Timur      Idi Rayeuk  Mahyuddin (Pj.)                                      5409.                                 434929        24 513           
# ℹ 504 more rows
# ℹ Use `print(n = ...)` to see more rows
```
…
    kelurahan = str_extract(kelurahan_desa, "[0-9	]+(?=/)"),
    kelurahan = ifelse(is.na(kelurahan), 0, kelurahan) %>% as.integer(),
    desa = str_extract(kelurahan_desa, "(?<=/)[0-9	]+"),
    desa = ifelse(is.na(desa), 0, desa) %>% as.integer(),
    total_kelurahan_desa = kelurahan+desa,
    total_kelurahan_desa = 
      ifelse(total_kelurahan_desa==0, kelurahan_desa, total_kelurahan_desa) %>%
      as.integer()
  ) %>%
  select(-c("kelurahan", "desa", "kelurahan_desa")) %>%
  relocate(provinsi, kabupaten_kota, kabkota) 
table_city_tidy
```
```
# A tibble: 514 × 9
   provinsi kabupaten_kota  kabkota   ibu_kota    bupati_wali_kota       luas_wilayah_diff_sources_and_years jumlah_penduduk_diff_sources_and_…¹ kecamatan total_kelurahan_desa
   <chr>    <chr>           <chr>     <chr>       <chr>                                                <dbl>                               <dbl>     <int>                <int>
 1 Aceh     Aceh Barat      Kabupaten Meulaboh    Mahdi Effendi (Pj.)                                  2783.                              198858        12                  322
 2 Aceh     Aceh Barat Daya Kabupaten Blangpidie  Darmansah (Pj.)                                      1882.                              153515         9                  152
 3 Aceh     Aceh Besar      Kabupaten Kota Jantho Muhammad Iswanto (Pj.)                               2891.                              422241        23                  604
 4 Aceh     Aceh Jaya       Kabupaten Calang      Nurdin (Pj.)                                         3872.                               96049         9                  172
 5 Aceh     Aceh Selatan    Kabupaten Tapak Tuan  Tgk. Amran                                           4175.                              234169        18                  260
 6 Aceh     Aceh Singkil    Kabupaten Singkil     Marthunis (Pj.)                                      1853.                              129674        11                  116
 7 Aceh     Aceh Tamiang    Kabupaten Karang Baru Meurah Budiman (Pj.)                                 2188.                              301800        12                  216
 8 Aceh     Aceh Tengah     Kabupaten Takengon    Teuku Mirzuan (Pj.)                                  4468.                              219744        14                  295
 9 Aceh     Aceh Tenggara   Kabupaten Kutacane    Syakir (Pj.)                                         4179.                              227921        16                  385
10 Aceh     Aceh Timur      Kabupaten Idi Rayeuk  Mahyuddin (Pj.)                                      5409.                              434929        24                  513
# ℹ 504 more rows
# ℹ abbreviated name: ¹​jumlah_penduduk_diff_sources_and_years
# ℹ Use `print(n = ...)` to see more rows
```
…
